Case #1: 1
Case #2: 6
Case #3: 1
Case #4: 0
Case #5: 23
Case #6: 63
Case #7: 35631465764
Case #8: 28571084503
Case #9: 33
Case #10: 34647
Case #11: 46
Case #12: 35516601872
Case #13: 26
Case #14: 21424813
Case #15: 23081107
Case #16: 50072
Case #17: 0
Case #18: 28571084502
Case #19: 20904957
Case #20: 68
Case #21: 24
Case #22: 18
Case #23: 0
Case #24: 23173157
Case #25: 153
Case #26: 57142169000
Case #27: 20372
Case #28: 43136
Case #29: 0
Case #30: 57142169000
